20080722 CSE 130 lecture notes

about rec

Scheme   |   *WAE
let      |   with
letrec   |   rec

{rec {f : (number -> boolean) ...


{if0 x {if is-zero...

(section 29.3)
foldl : forall alpha,beta. (alpha x beta -> alpha) x alpha x list(beta) -> alpha


